 _____    _       _     
|_   _|__| |_ ___|_|___ 
  | || -_|  _|  _| |_ -|
  |_||___|_| |_| |_|___|

       ___     _    _          
      | _ )_ _(_)__| |__       
      | _ \ '_| / _| / /       
  ___ |___/_| |_\__|_\_\       
 | _ )_ _ ___ __ _| |_____ _ _ 
 | _ \ '_/ -_) _` | / / -_) '_|
 |___/_| \___\__,_|_\_\___|_|  